…
Now, you can apply various functions to each event by using the map2()
function from the purrr package. For example, to get the deflection of
each event, you use the map2 function to iteratively apply the
get\_deflection function to each dataframe of events and equation
information inside the nested dataframe.

``` r
results_df <- nested_analysis_df %>% 
              mutate(deflection = map2(data, eq_info, get_deflection))

results_df %>% unnest() %>% select(event_id, term, deflection) %>% distinct()
#> Warning: `cols` is now required when using unnest().
#> Please use `cols = c(data, deflection)`
#> # A tibble: 30 × 3
#> # Groups:   event_id [10]
#>    event_id term           deflection
#>       <int> <chr>               <dbl>
#>  1        1 authority           13.3 
#>  2        1 hide_from           13.3 
#>  3        1 student             13.3 
#>  4        2 mormon               5.06
#>  5        2 dine_with            5.06
#>  6        2 underdog             5.06
#>  7        3 alcoholic            9.00
#>  8        3 fondle               9.00
#>  9        3 peer                 9.00
#> 10        4 civil_engineer      13.0 
#> # … with 20 more rows
```
…
