Implements Affect Control Theory Equations in R • inteRact
…
A

1.58

1.051

0.529

0.280

Again, you can do this for an entire dataframe using batch_element_deflection:

elem_def <- batch_element_deflection(events)
elem_def 
#> # A tibble: 90 x 10
#>    actor behavior object term  element dimension fundamental_sen… trans_imp
#>    <chr> <chr>    <chr>  <chr> <chr>   <chr>                <dbl>     <dbl>
#>  1 brute work     cook   brute A       E                    -1.97    -1.18 
#>  2 brute work     cook   brute A       P                     1.74     1.57 
#>  3 brute work     cook   brute A       A                     1.44     1.15 
#>  4 brute work     cook   work  B       E                     0.27    -0.346
#>  5 brute work     cook   work  B       P                     1.51     1.46 
#>  6 brute work     cook   work  B       A                     0.99     0.999
#>  7 brute work     cook   cook  O       E                     2.24     1.24 
#>  8 brute work     cook   cook  O       P                     1.69     0.464
#>  9 brute work     cook   cook  O       A                     1.58     1.05 
#> 10 dolt  say_far… execu… dolt  A       E                    -0.97    -0.519
#> # … with 80 more rows, and 2 more variables: difference <dbl>, sqd_diff <dbl>
…
Optimal Behavior

beh <- optimal_behavior("brute", "work", "cook")
beh
#> # A tibble: 1 x 3
#>        E     P     A
#>    <dbl> <dbl> <dbl>
#> 1 -0.110 0.763  1.61

Closest Term

closest_term(beh$E, beh$P, beh$A, term_typ = "behavior", max_dist = 1)
#> # A tibble: 45 x 17
#>    term      E     P     A    E2    P2    A2 type  country  year      d_e
#>    <chr> <dbl> <dbl> <dbl> <dbl> <dbl> <dbl> <chr> <chr>   <dbl>    <dbl>
#>  1 hagg… -0.26  0.84  1.59 -0.26  0.84  1.59 beha… US       2015 -0.150  
#>  2 paro… -0.01  0.8   1.46 -0.01  0.8   1.46 beha… US       2015  0.0998 
#>  3 prea…  0.33  1.09  1.58  0.33  1.09  1.58 beha… US       2015  0.440  
#>  4 hurry -0.46  0.75  2.04 -0.46  0.75  2.04 beha… US       2015 -0.350  
#>  5 disp… -0.1   1.32  1.54 -0.1   1.32  1.54 beha… US       2015  0.00978
#>  6 dare  -0.53  0.86  1.24 -0.53  0.86  1.24 beha… US       2015 -0.420  
#>  7 laug… -0.56  0.85  1.99 -0.56  0.85  1.99 beha… US       2015 -0.450  
#>  8 jest  -0.44  0.28  1.48 -0.44  0.28  1.48 beha… US       2015 -0.330  
#>  9 ravi…  0.24  1.24  1.42  0.24  1.24  1.42 beha… US       2015  0.350  
#> 10 kid    0.22  0.36  1.25  0.22  0.36  1.25 beha… US       2015  0.330  
#> # … with 35 more rows, and 6 more variables: d_p <dbl>, d_a <dbl>, d_e_s <dbl>,
#> #   d_p_s <dbl>, d_a_s <dbl>, ssd <dbl>
…
