Example_Analysis • inteRact
…
nested_analysis <- analysis_df %>% ungroup() %>% 
                   nest_by(event_id) %>% 
                   mutate(equation_key = "us2010",
                          equation_gender = "average")

Step 4: Run some calculations

deflection <- nested_analysis %>% 
              mutate(d = get_deflection(data = data, 
                                        equation_key = equation_key,
                                        equation_gender = equation_gender))
                       
deflection %>% unnest(cols = c(data, d))
#> # A tibble: 450 × 10
#> # Groups:   event_id [50]
#>    event_id element  term    compo…¹ event dimen…² estim…³ equat…⁴ equat…⁵     d
#>       <int> <chr>    <chr>   <chr>   <chr> <chr>     <dbl> <chr>   <chr>   <dbl>
#>  1        1 actor    grandm… identi… gran… E          2.76 us2010  average  6.38
#>  2        1 actor    grandm… identi… gran… P          0.89 us2010  average  6.38
#>  3        1 actor    grandm… identi… gran… A         -1.03 us2010  average  6.38
#>  4        1 behavior bewild… behavi… gran… E         -0.34 us2010  average  6.38
#>  5        1 behavior bewild… behavi… gran… P          0.68 us2010  average  6.38
#>  6        1 behavior bewild… behavi… gran… A          0.65 us2010  average  6.38
#>  7        1 object   mourner identi… gran… E         -0.15 us2010  average  6.38
#>  8        1 object   mourner identi… gran… P         -1.6  us2010  average  6.38
#>  9        1 object   mourner identi… gran… A         -1.65 us2010  average  6.38
#> 10        2 actor    buddy   identi… budd… E          2.66 us2010  average 10.7 
#> # … with 440 more rows, and abbreviated variable names ¹​component, ²​dimension,
#> #   ³​estimate, ⁴​equation_key, ⁵​equation_gender
…
