Using your own equations • inteRact
…
You can also do the same with getting the entire transient impression, but you have to list() the results and then unnest() them afterwards.

transimp <- nested_analysis %>%
              mutate(ti = list(transient_impression(d = data, 
                             eq_df = eq_df)))

transimp %>% unnest(ti)

## # A tibble: 450 × 9
## # Groups:   event_id [50]
##    event_id          data eq_df    element term  compo…¹ dimen…² estim…³ trans…⁴
##       <int> <list<tibble> <list>   <chr>   <chr> <chr>   <chr>     <dbl>   <dbl>
##  1        1       [9 × 6] <tibble> actor   gran… identi… E            NA    0.9 
##  2        1       [9 × 6] <tibble> actor   gran… identi… P            NA    0.64
##  3        1       [9 × 6] <tibble> actor   gran… identi… A            NA    1.01
##  4        1       [9 × 6] <tibble> behavi… bewi… behavi… E            NA    0.81
##  5        1       [9 × 6] <tibble> behavi… bewi… behavi… P            NA    1.05
##  6        1       [9 × 6] <tibble> behavi… bewi… behavi… A            NA    1.24
##  7        1       [9 × 6] <tibble> object  mour… identi… E            NA    1.11
##  8        1       [9 × 6] <tibble> object  mour… identi… P            NA    0.31
##  9        1       [9 × 6] <tibble> object  mour… identi… A            NA    1.17
## 10        2       [9 × 6] <tibble> actor   buddy identi… E            NA    0.9 
## # … with 440 more rows, and abbreviated variable names ¹​component, ²​dimension,
## #   ³​estimate, ⁴​trans_imp
…
